{
  "name": "lesson",
  "plural": "lessons",
  "base": "PersistedModel",
  "idInjection": true,
  "options": {
    "validateUpsert": true
  },
  "properties": {
    "Id": {
      "type": "number",
      "required": true
    },
    "name": {
      "type": "string",
      "required": true
    },
    "status": {
      "type": "boolean",
      "required": true,
      "default": true
    },
    "createdAt": {
      "type": "date"
    },
    "updatedAt": {
      "type": "date"
    }
  },
  "validations": [],
  "relations": {},
  "acls": [],
  "methods": {}
}
